{
  "version": 2,
  "builds": [
    {
      "src": "nuxt.config.js",
      "use": "@nuxtjs/vercel-builder",
      "config": {
        "generateStaticRoutes": true,
        "serverFiles": ["package.json","vuetify/es5/util/colors", "vuetify/es5/locale/es"]
      }
    }
  ]
}
