<svg width="29" height="33" viewBox="0 0 29 33" fill="none" xmlns="http://www.w3.org/2000/svg">
<path d="M13.3155 0.984941L13.0193 0.318623L13.3155 0.984941ZM3.2455 5.46045L3.54164 6.12678L3.2455 5.46045ZM1.52081 8.33354L2.24813 8.2816L1.52081 8.33354ZM2.35968 20.0777L3.08699 20.0257L2.35968 20.0777ZM8.7792 29.6814L8.4531 30.3336L8.7792 29.6814ZM13.1956 31.8896L13.5217 31.2375L13.1956 31.8896ZM15.8044 31.8896L15.4783 31.2375L15.8044 31.8896ZM20.2208 29.6814L19.8946 29.0293L20.2208 29.6814ZM26.6403 20.0777L27.3675 20.1296L26.6403 20.0777ZM27.4791 8.33354L26.7518 8.2816L27.4791 8.33354ZM25.7545 5.46046L25.4583 6.12678L25.7545 5.46046ZM15.6845 0.984941L15.9807 0.318623L15.6845 0.984941ZM12.0989 14.5261C11.8141 14.2415 11.3525 14.2415 11.0677 14.5261C10.783 14.811 10.783 15.2727 11.0677 15.5575L12.0989 14.5261ZM14.4999 17.9585L13.9844 18.4741C14.2691 18.7588 14.7308 18.7588 15.0156 18.4741L14.4999 17.9585ZM19.3906 14.0991C19.6754 13.8143 19.6754 13.3526 19.3906 13.0679C19.1058 12.7831 18.6441 12.7831 18.3594 13.0679L19.3906 14.0991ZM13.0193 0.318623L2.94935 4.79414L3.54164 6.12678L13.6115 1.65127L13.0193 0.318623ZM0.793499 8.3855L1.63236 20.1296L3.08699 20.0257L2.24813 8.2816L0.793499 8.3855ZM8.4531 30.3336L12.8695 32.5418L13.5217 31.2375L9.1053 29.0293L8.4531 30.3336ZM16.1305 32.5418L20.5469 30.3336L19.8946 29.0293L15.4783 31.2375L16.1305 32.5418ZM27.3675 20.1296L28.2065 8.3855L26.7518 8.2816L25.913 20.0257L27.3675 20.1296ZM26.0507 4.79414L15.9807 0.318623L15.3883 1.65127L25.4583 6.12678L26.0507 4.79414ZM11.0677 15.5575L13.9844 18.4741L15.0156 17.4428L12.0989 14.5261L11.0677 15.5575ZM15.0156 18.4741L19.3906 14.0991L18.3594 13.0679L13.9844 17.4428L15.0156 18.4741ZM28.2065 8.3855C28.3159 6.85383 27.4539 5.41779 26.0507 4.79414L25.4583 6.12678C26.3002 6.50097 26.8174 7.36258 26.7518 8.2816L28.2065 8.3855ZM20.5469 30.3336C24.463 28.3755 27.0556 24.4968 27.3675 20.1296L25.913 20.0257C25.6377 23.8792 23.3501 27.3016 19.8946 29.0293L20.5469 30.3336ZM12.8695 32.5418C13.8959 33.055 15.1041 33.055 16.1305 32.5418L15.4783 31.2375C14.8625 31.5453 14.1375 31.5453 13.5217 31.2375L12.8695 32.5418ZM1.63236 20.1296C1.94431 24.4968 4.537 28.3755 8.4531 30.3336L9.1053 29.0293C5.64989 27.3016 3.36224 23.8792 3.08699 20.0257L1.63236 20.1296ZM2.94935 4.79414C1.54613 5.41779 0.684095 6.85383 0.793499 8.3855L2.24813 8.2816C2.18249 7.3626 2.6997 6.50097 3.54164 6.12678L2.94935 4.79414ZM13.6115 1.65127C14.1772 1.39988 14.8228 1.39988 15.3883 1.65127L15.9807 0.318623C15.038 -0.100348 13.9619 -0.100349 13.0193 0.318623L13.6115 1.65127Z" fill="black"/>
</svg>
