<?xml version="1.0" encoding="UTF-8"?>
<svg width="40px" height="40px" viewBox="0 0 40 40" version="1.1" xmlns="http://www.w3.org/2000/svg" xmlns:xlink="http://www.w3.org/1999/xlink">
    <!-- Generator: Sketch 55.1 (78136) - https://sketchapp.com -->
    <title>icon/transmision/40n</title>
    <desc>Created with Sketch.</desc>
    <g id="icon/transmision/40n" stroke="none" stroke-width="1" fill="none" fill-rule="evenodd">
        <path d="M23.0608,19.7664 L29.6496,19.7664 L29.6496,4.9416 L34.5912,4.9416 L34.5912,24.708 L33.7676,24.708 L23.0608,24.708 L23.0608,34.5912 L18.1192,34.5912 L18.1192,24.708 L11.5304,24.708 L11.5304,34.5912 L6.5888,34.5912 L6.5888,4.9416 L11.5304,4.9416 L11.5304,19.7664 L18.1192,19.7664 L18.1192,4.9416 L23.0608,4.9416 L23.0608,19.7664 Z" id="Combined-Shape" stroke="#FFFFFF" stroke-width="2" fill="#000000"></path>
    </g>
</svg>